{
    "metadata": {
        "data_format_version": 1,
        "satellite_name": "BOBCAT-1"
    },
    "graph": {
        "data_format_version": 1,
        "nodes": [
            {
                "id": "data",
                "name": "data",
                "group": 0
            },
            {
                "id": "type",
                "name": "type",
                "group": 0
            },
            {
                "id": "a3200_hktable_17_1_timestamp",
                "name": "a3200_hktable_17_1_timestamp",
                "group": 0
            },
            {
                "id": "a3200_hktable_10_timestamp",
                "name": "a3200_hktable_10_timestamp",
                "group": 0
            },
            {
                "id": "bc1_wdcnt",
                "name": "bc1_wdcnt",
                "group": 0
            },
            {
                "id": "adcs_mode",
                "name": "adcs_mode",
                "group": 0
            },
            {
                "id": "a3200_hktable_17_2_timestamp",
                "name": "a3200_hktable_17_2_timestamp",
                "group": 0
            },
            {
                "id": "framelength",
                "name": "framelength",
                "group": 0
            },
            {
                "id": "a3200_hktable0_timestamp",
                "name": "a3200_hktable0_timestamp",
                "group": 0
            },
            {
                "id": "bat_v",
                "name": "bat_v",
                "group": 0
            },
            {
                "id": "bat_i_in",
                "name": "bat_i_in",
                "group": 0
            },
            {
                "id": "bat_i_out",
                "name": "bat_i_out",
                "group": 0
            },
            {
                "id": "solar1_i",
                "name": "solar1_i",
                "group": 0
            },
            {
                "id": "solar1_v",
                "name": "solar1_v",
                "group": 0
            },
            {
                "id": "solar2_i",
                "name": "solar2_i",
                "group": 0
            },
            {
                "id": "solar2_v",
                "name": "solar2_v",
                "group": 0
            },
            {
                "id": "solar3_i",
                "name": "solar3_i",
                "group": 0
            },
            {
                "id": "solar3_v",
                "name": "solar3_v",
                "group": 0
            },
            {
                "id": "sdr_i",
                "name": "sdr_i",
                "group": 0
            },
            {
                "id": "bootcount_p31",
                "name": "bootcount_p31",
                "group": 0
            },
            {
                "id": "bootcause_p31",
                "name": "bootcause_p31",
                "group": 0
            },
            {
                "id": "bootcount_a3200",
                "name": "bootcount_a3200",
                "group": 0
            },
            {
                "id": "bootcause_a3200",
                "name": "bootcause_a3200",
                "group": 0
            },
            {
                "id": "resetcause_a3200",
                "name": "resetcause_a3200",
                "group": 0
            },
            {
                "id": "uptime_a3200",
                "name": "uptime_a3200",
                "group": 0
            },
            {
                "id": "temp_mcu",
                "name": "temp_mcu",
                "group": 0
            },
            {
                "id": "i_gssb1",
                "name": "i_gssb1",
                "group": 0
            },
            {
                "id": "i_pwm",
                "name": "i_pwm",
                "group": 0
            },
            {
                "id": "panel_temp1",
                "name": "panel_temp1",
                "group": 0
            },
            {
                "id": "panel_temp2",
                "name": "panel_temp2",
                "group": 0
            },
            {
                "id": "panel_temp3",
                "name": "panel_temp3",
                "group": 0
            },
            {
                "id": "panel_temp4",
                "name": "panel_temp4",
                "group": 0
            },
            {
                "id": "panel_temp5",
                "name": "panel_temp5",
                "group": 0
            },
            {
                "id": "panel_temp6",
                "name": "panel_temp6",
                "group": 0
            },
            {
                "id": "panel_temp7",
                "name": "panel_temp7",
                "group": 0
            },
            {
                "id": "panel_temp8",
                "name": "panel_temp8",
                "group": 0
            },
            {
                "id": "panel_temp9",
                "name": "panel_temp9",
                "group": 0
            },
            {
                "id": "p31_temp1",
                "name": "p31_temp1",
                "group": 0
            },
            {
                "id": "p31_temp2",
                "name": "p31_temp2",
                "group": 0
            },
            {
                "id": "p31_temp3",
                "name": "p31_temp3",
                "group": 0
            },
            {
                "id": "p31_temp4",
                "name": "p31_temp4",
                "group": 0
            },
            {
                "id": "p31_temp5",
                "name": "p31_temp5",
                "group": 0
            },
            {
                "id": "p31_temp6",
                "name": "p31_temp6",
                "group": 0
            },
            {
                "id": "flash1_free",
                "name": "flash1_free",
                "group": 0
            },
            {
                "id": "ax100_telemtable_timestamp",
                "name": "ax100_telemtable_timestamp",
                "group": 0
            },
            {
                "id": "temp_brd",
                "name": "temp_brd",
                "group": 0
            },
            {
                "id": "temp_pa",
                "name": "temp_pa",
                "group": 0
            },
            {
                "id": "bgnd_rssi",
                "name": "bgnd_rssi",
                "group": 0
            },
            {
                "id": "tot_tx_count",
                "name": "tot_tx_count",
                "group": 0
            },
            {
                "id": "tot_tx_bytes",
                "name": "tot_tx_bytes",
                "group": 0
            },
            {
                "id": "bootcount_ax100",
                "name": "bootcount_ax100",
                "group": 0
            },
            {
                "id": "bootcause_ax100",
                "name": "bootcause_ax100",
                "group": 0
            },
            {
                "id": "deploy_attempts1",
                "name": "deploy_attempts1",
                "group": 0
            },
            {
                "id": "deploy_attempts2",
                "name": "deploy_attempts2",
                "group": 0
            },
            {
                "id": "deploy_attempts3",
                "name": "deploy_attempts3",
                "group": 0
            },
            {
                "id": "deploy_attempts4",
                "name": "deploy_attempts4",
                "group": 0
            },
            {
                "id": "gyro_x",
                "name": "gyro_x",
                "group": 0
            },
            {
                "id": "gyro_y",
                "name": "gyro_y",
                "group": 0
            },
            {
                "id": "gyro_z",
                "name": "gyro_z",
                "group": 0
            },
            {
                "id": "timestamp",
                "name": "timestamp",
                "group": 0
            }
        ],
        "links": [
            {
                "source": "data",
                "target": "framelength",
                "value": 0.9942803978919983
            },
            {
                "source": "a3200_hktable_17_1_timestamp",
                "target": "a3200_hktable_10_timestamp",
                "value": 1.0
            },
            {
                "source": "a3200_hktable_17_1_timestamp",
                "target": "bc1_wdcnt",
                "value": 0.9235665202140808
            },
            {
                "source": "a3200_hktable_17_1_timestamp",
                "target": "adcs_mode",
                "value": 1.0
            },
            {
                "source": "a3200_hktable_17_1_timestamp",
                "target": "a3200_hktable_17_2_timestamp",
                "value": 1.0
            },
            {
                "source": "a3200_hktable_17_1_timestamp",
                "target": "a3200_hktable0_timestamp",
                "value": 0.19509024918079376
            },
            {
                "source": "a3200_hktable_17_1_timestamp",
                "target": "bootcount_p31",
                "value": 0.41660094261169434
            },
            {
                "source": "a3200_hktable_17_1_timestamp",
                "target": "bootcause_p31",
                "value": 1.0
            },
            {
                "source": "a3200_hktable_17_1_timestamp",
                "target": "bootcount_a3200",
                "value": 0.6493127346038818
            },
            {
                "source": "a3200_hktable_17_1_timestamp",
                "target": "bootcause_a3200",
                "value": 1.0
            },
            {
                "source": "a3200_hktable_17_1_timestamp",
                "target": "ax100_telemtable_timestamp",
                "value": 0.4455248713493347
            },
            {
                "source": "a3200_hktable_17_1_timestamp",
                "target": "tot_tx_count",
                "value": 0.7016273140907288
            },
            {
                "source": "a3200_hktable_17_1_timestamp",
                "target": "tot_tx_bytes",
                "value": 0.5712196826934814
            },
            {
                "source": "a3200_hktable_17_1_timestamp",
                "target": "bootcause_ax100",
                "value": 0.27766188979148865
            },
            {
                "source": "a3200_hktable_17_1_timestamp",
                "target": "deploy_attempts1",
                "value": 0.46834418177604675
            },
            {
                "source": "a3200_hktable_17_1_timestamp",
                "target": "deploy_attempts2",
                "value": 0.5005447268486023
            },
            {
                "source": "a3200_hktable_17_1_timestamp",
                "target": "deploy_attempts3",
                "value": 0.5065154433250427
            },
            {
                "source": "a3200_hktable_17_1_timestamp",
                "target": "deploy_attempts4",
                "value": 0.5132330656051636
            },
            {
                "source": "a3200_hktable_17_1_timestamp",
                "target": "gyro_y",
                "value": 0.12456033378839493
            },
            {
                "source": "a3200_hktable_17_1_timestamp",
                "target": "timestamp",
                "value": 0.1520015001296997
            },
            {
                "source": "a3200_hktable_10_timestamp",
                "target": "a3200_hktable_17_1_timestamp",
                "value": 1.0
            },
            {
                "source": "bc1_wdcnt",
                "target": "ax100_telemtable_timestamp",
                "value": 0.1250048577785492
            },
            {
                "source": "bc1_wdcnt",
                "target": "tot_tx_count",
                "value": 0.11648750305175781
            },
            {
                "source": "bc1_wdcnt",
                "target": "tot_tx_bytes",
                "value": 0.14277979731559753
            },
            {
                "source": "bc1_wdcnt",
                "target": "deploy_attempts1",
                "value": 0.4668360650539398
            },
            {
                "source": "bc1_wdcnt",
                "target": "deploy_attempts2",
                "value": 0.4383898377418518
            },
            {
                "source": "bc1_wdcnt",
                "target": "deploy_attempts3",
                "value": 0.4331815242767334
            },
            {
                "source": "bc1_wdcnt",
                "target": "deploy_attempts4",
                "value": 0.41364651918411255
            },
            {
                "source": "bc1_wdcnt",
                "target": "timestamp",
                "value": 0.2896423041820526
            },
            {
                "source": "framelength",
                "target": "type",
                "value": 0.9972084760665894
            },
            {
                "source": "a3200_hktable0_timestamp",
                "target": "bat_i_out",
                "value": 0.3334416151046753
            },
            {
                "source": "a3200_hktable0_timestamp",
                "target": "bootcount_p31",
                "value": 0.5833989977836609
            },
            {
                "source": "a3200_hktable0_timestamp",
                "target": "bootcount_a3200",
                "value": 0.3506872355937958
            },
            {
                "source": "a3200_hktable0_timestamp",
                "target": "i_gssb1",
                "value": 0.983795702457428
            },
            {
                "source": "a3200_hktable0_timestamp",
                "target": "i_pwm",
                "value": 0.981704592704773
            },
            {
                "source": "a3200_hktable0_timestamp",
                "target": "ax100_telemtable_timestamp",
                "value": 0.4294702708721161
            },
            {
                "source": "a3200_hktable0_timestamp",
                "target": "tot_tx_count",
                "value": 0.17995887994766235
            },
            {
                "source": "a3200_hktable0_timestamp",
                "target": "tot_tx_bytes",
                "value": 0.258916974067688
            },
            {
                "source": "a3200_hktable0_timestamp",
                "target": "bootcount_ax100",
                "value": 0.37944862246513367
            },
            {
                "source": "a3200_hktable0_timestamp",
                "target": "timestamp",
                "value": 0.18570365011692047
            },
            {
                "source": "bat_v",
                "target": "bat_i_in",
                "value": 0.4868376851081848
            },
            {
                "source": "bat_v",
                "target": "solar2_i",
                "value": 0.18859802186489105
            },
            {
                "source": "bat_i_in",
                "target": "bat_v",
                "value": 0.14585314691066742
            },
            {
                "source": "bat_i_in",
                "target": "solar2_i",
                "value": 0.21686722338199615
            },
            {
                "source": "solar1_i",
                "target": "solar2_i",
                "value": 0.10953550040721893
            },
            {
                "source": "solar1_v",
                "target": "bat_i_in",
                "value": 0.201376810669899
            },
            {
                "source": "solar1_v",
                "target": "solar1_i",
                "value": 0.6423769593238831
            },
            {
                "source": "solar1_v",
                "target": "solar2_v",
                "value": 0.6835235953330994
            },
            {
                "source": "solar1_v",
                "target": "solar3_v",
                "value": 0.6886131167411804
            },
            {
                "source": "solar1_v",
                "target": "panel_temp9",
                "value": 0.5439884066581726
            },
            {
                "source": "solar2_i",
                "target": "solar1_v",
                "value": 0.27530214190483093
            },
            {
                "source": "solar2_v",
                "target": "solar1_v",
                "value": 0.551659107208252
            },
            {
                "source": "solar2_v",
                "target": "solar3_i",
                "value": 0.12567201256752014
            },
            {
                "source": "solar2_v",
                "target": "solar3_v",
                "value": 0.3113383948802948
            },
            {
                "source": "solar3_v",
                "target": "solar2_v",
                "value": 0.31642061471939087
            },
            {
                "source": "bootcount_p31",
                "target": "a3200_hktable0_timestamp",
                "value": 0.5489356517791748
            },
            {
                "source": "resetcause_a3200",
                "target": "solar2_i",
                "value": 0.13023598492145538
            },
            {
                "source": "resetcause_a3200",
                "target": "solar3_i",
                "value": 0.2839999496936798
            },
            {
                "source": "uptime_a3200",
                "target": "sdr_i",
                "value": 1.0
            },
            {
                "source": "uptime_a3200",
                "target": "flash1_free",
                "value": 1.0
            },
            {
                "source": "uptime_a3200",
                "target": "bootcause_ax100",
                "value": 0.559140682220459
            },
            {
                "source": "uptime_a3200",
                "target": "gyro_x",
                "value": 0.3237133324146271
            },
            {
                "source": "uptime_a3200",
                "target": "gyro_y",
                "value": 0.15020039677619934
            },
            {
                "source": "uptime_a3200",
                "target": "gyro_z",
                "value": 0.29936477541923523
            },
            {
                "source": "temp_mcu",
                "target": "p31_temp1",
                "value": 0.17631405591964722
            },
            {
                "source": "temp_mcu",
                "target": "p31_temp2",
                "value": 0.22371746599674225
            },
            {
                "source": "temp_mcu",
                "target": "p31_temp3",
                "value": 0.24551299214363098
            },
            {
                "source": "temp_mcu",
                "target": "p31_temp4",
                "value": 0.12655112147331238
            },
            {
                "source": "temp_mcu",
                "target": "p31_temp5",
                "value": 0.5806118845939636
            },
            {
                "source": "temp_mcu",
                "target": "p31_temp6",
                "value": 0.6962151527404785
            },
            {
                "source": "temp_mcu",
                "target": "temp_brd",
                "value": 0.2493935525417328
            },
            {
                "source": "temp_mcu",
                "target": "temp_pa",
                "value": 0.438087522983551
            },
            {
                "source": "i_pwm",
                "target": "bat_i_out",
                "value": 0.12672190368175507
            },
            {
                "source": "panel_temp1",
                "target": "panel_temp2",
                "value": 0.5236063003540039
            },
            {
                "source": "panel_temp1",
                "target": "panel_temp7",
                "value": 0.11922245472669601
            },
            {
                "source": "panel_temp2",
                "target": "temp_mcu",
                "value": 0.7510563731193542
            },
            {
                "source": "panel_temp2",
                "target": "panel_temp1",
                "value": 0.17681938409805298
            },
            {
                "source": "panel_temp2",
                "target": "panel_temp8",
                "value": 0.1074189618229866
            },
            {
                "source": "panel_temp3",
                "target": "bat_v",
                "value": 0.21581777930259705
            },
            {
                "source": "panel_temp3",
                "target": "panel_temp4",
                "value": 0.6753333806991577
            },
            {
                "source": "panel_temp3",
                "target": "panel_temp5",
                "value": 0.7733360528945923
            },
            {
                "source": "panel_temp4",
                "target": "solar3_i",
                "value": 0.20017337799072266
            },
            {
                "source": "panel_temp4",
                "target": "panel_temp3",
                "value": 0.3185725808143616
            },
            {
                "source": "panel_temp4",
                "target": "panel_temp6",
                "value": 0.6543659567832947
            },
            {
                "source": "panel_temp5",
                "target": "panel_temp3",
                "value": 0.6027345657348633
            },
            {
                "source": "panel_temp5",
                "target": "panel_temp6",
                "value": 0.1487654596567154
            },
            {
                "source": "panel_temp6",
                "target": "panel_temp5",
                "value": 0.12546633183956146
            },
            {
                "source": "panel_temp7",
                "target": "bat_v",
                "value": 0.17306724190711975
            },
            {
                "source": "panel_temp7",
                "target": "panel_temp1",
                "value": 0.6987565159797668
            },
            {
                "source": "panel_temp7",
                "target": "panel_temp8",
                "value": 0.6911683082580566
            },
            {
                "source": "panel_temp8",
                "target": "bat_v",
                "value": 0.16665442287921906
            },
            {
                "source": "panel_temp8",
                "target": "panel_temp2",
                "value": 0.28794077038764954
            },
            {
                "source": "panel_temp8",
                "target": "panel_temp7",
                "value": 0.753427267074585
            },
            {
                "source": "panel_temp9",
                "target": "bat_i_in",
                "value": 0.10747715085744858
            },
            {
                "source": "p31_temp1",
                "target": "p31_temp2",
                "value": 0.17059382796287537
            },
            {
                "source": "p31_temp2",
                "target": "p31_temp1",
                "value": 0.6626615524291992
            },
            {
                "source": "p31_temp2",
                "target": "p31_temp3",
                "value": 0.6880464553833008
            },
            {
                "source": "p31_temp2",
                "target": "p31_temp4",
                "value": 0.19352319836616516
            },
            {
                "source": "p31_temp3",
                "target": "p31_temp2",
                "value": 0.5577468276023865
            },
            {
                "source": "p31_temp3",
                "target": "p31_temp4",
                "value": 0.56068354845047
            },
            {
                "source": "p31_temp3",
                "target": "bgnd_rssi",
                "value": 0.10499723255634308
            },
            {
                "source": "p31_temp5",
                "target": "p31_temp6",
                "value": 0.28224077820777893
            },
            {
                "source": "p31_temp6",
                "target": "p31_temp5",
                "value": 0.3902268409729004
            },
            {
                "source": "ax100_telemtable_timestamp",
                "target": "a3200_hktable0_timestamp",
                "value": 0.1966799944639206
            },
            {
                "source": "temp_brd",
                "target": "temp_mcu",
                "value": 0.11650847643613815
            },
            {
                "source": "temp_brd",
                "target": "temp_pa",
                "value": 0.49928775429725647
            },
            {
                "source": "temp_pa",
                "target": "temp_brd",
                "value": 0.7168580293655396
            },
            {
                "source": "bootcount_ax100",
                "target": "uptime_a3200",
                "value": 0.6117738485336304
            },
            {
                "source": "bootcount_ax100",
                "target": "timestamp",
                "value": 0.24357669055461884
            },
            {
                "source": "gyro_x",
                "target": "gyro_y",
                "value": 0.184120774269104
            },
            {
                "source": "gyro_y",
                "target": "gyro_x",
                "value": 0.1416953057050705
            },
            {
                "source": "gyro_z",
                "target": "solar1_i",
                "value": 0.10010544955730438
            },
            {
                "source": "gyro_z",
                "target": "resetcause_a3200",
                "value": 0.9122350215911865
            },
            {
                "source": "gyro_z",
                "target": "uptime_a3200",
                "value": 0.2365286648273468
            },
            {
                "source": "gyro_z",
                "target": "panel_temp9",
                "value": 0.16643786430358887
            },
            {
                "source": "gyro_z",
                "target": "bootcause_ax100",
                "value": 0.16190414130687714
            },
            {
                "source": "gyro_z",
                "target": "gyro_x",
                "value": 0.16234365105628967
            },
            {
                "source": "gyro_z",
                "target": "gyro_y",
                "value": 0.35479381680488586
            },
            {
                "source": "timestamp",
                "target": "bootcount_ax100",
                "value": 0.5399817228317261
            },
            {
                "source": "timestamp",
                "target": "gyro_z",
                "value": 0.5072036385536194
            }
        ]
    }
}